leveldb/port/port_posix.cc: In function 'bool leveldb::port::HasAcceleratedCRC32C()':
leveldb/port/port_posix.cc:60:15: warning: 'ecx' may be used uninitialized in this function [-Wmaybe-uninitialized]
   return (ecx & (1 << 20)) != 0;
               ^
